{
    "id": 0,
    "clienteId": 0,
    "apolice": {
      "id": 0,
      "ativa": true,
      "premio": 0,
      "validade": "2022-04-07T18:35:22.437Z",
      "fracionamento": "string",
      "agenteId": 0,
      "seguroId": 0,
      "coberturaHasApolices": [
        {
          "coberturaId": 0
        }
      ]
    }
  }